[
    {
        "city": "高雄市",
        "ename": "Kaohsuing City",
        "url": "https://www.kcg.gov.tw/Default.aspx",
        "major": "",
        "population": 2770000,
        "geography": "south of Taiwan",
        "districts": [
            {
                "name": "楠梓區",
                "ename": "Nanzih",
                "url": "https://nanzih.kcg.gov.tw/"
            },
            {
                "name": "左營區",
                "ename": "Zuoying",
                "url": "https://kcgtdo.kcg.gov.tw/"
            },
            {
                "name": "鼔山區",
                "ename": "Gushan",
                "url": "https://gushan.kcg.gov.tw/"
            },
            {
                "name": "三民區",
                "ename": "Sanmin",
                "url": "https://smd.kcg.gov.tw/"
            },
            {
                "name": "苓雅區",
                "ename": "Lingya",
                "url": "https://lingya.kcg.gov.tw/"
            },
            {
                "name": "新興區",
                "ename": "Sinsing",
                "url": "https://hsingsin.kcg.gov.tw/"
            },
            {
                "name": "前金區",
                "ename": "Chiengin",
                "url": "https://chiengin.kcg.gov.tw/"
            },
            {
                "name": "鹽埕區",
                "ename": "Yan-Cheng",
                "url": "https://yancheng.kcg.gov.tw/"
            },
            {
                "name": "前鎮區",
                "ename": "Cianjhen",
                "url": "https://kccdo.kcg.gov.tw/"
            },
            {
                "name": "旗津區",
                "ename": "Cijin",
                "url": "https://cijin.kcg.gov.tw/"
            },
            {
                "name": "小港區",
                "ename": "Siaogang",
                "url": "https://hdao.kcg.gov.tw/"
            },
            {
                "name": "鳳山區",
                "ename": "Fongshan",
                "url": "https://fsdo.kcg.gov.tw/"
            },
            {
                "name": "茂林區",
                "ename": "Maolin",
                "url": "https://maolin.kcg.gov.tw/"
            },
            {
                "name": "甲仙區",
                "ename": "jiasian",
                "url": "https://jiasian.kcg.gov.tw/"
            },
            {
                "name": "六龜區",
                "ename": "Liouguei",
                "url": "https://liouguei.kcg.gov.tw/"
            },
            {
                "name": "杉林區",
                "ename": "Shanlin",
                "url": "https://shanlin.kcg.gov.tw/"
            },
            {
                "name": "美濃區",
                "ename": "Meinong",
                "url": "http://meinong-district.kcg.gov.tw/"
            },
            {
                "name": "內門區",
                "ename": "Neimen",
                "url": "https://neimen.kcg.gov.tw/"
            },
            {
                "name": "仁武區",
                "ename": "Renwu",
                "url": "https://rwdo.kcg.gov.tw/"
            },
            {
                "name": "田寮區",
                "ename": "Tianliao",
                "url": "https://tianliao.kcg.gov.tw/"
            },
            {
                "name": "旗山區",
                "ename": "Cishan",
                "url": "https://cishan88.kcg.gov.tw/"
            },
            {
                "name": "梓官區",
                "ename": "Tsukuan",
                "url": "https://tzukuan.kcg.gov.tw/"
            },
            {
                "name": "阿蓮區",
                "ename": "Alian",
                "url": "https://alian.kcg.gov.tw/"
            },
            {
                "name": "湖內區",
                "ename": "Hunei",
                "url": "https://hunei.kcg.gov.tw/"
            },
            {
                "name": "岡山區",
                "ename": "Gangshan",
                "url": "https://gangshan.kcg.gov.tw/",
            },
            {
                "name": "茄萣區",
                "ename": "Cieding",
                "url": "https://cieding.kcg.gov.tw/"
            },
            {
                "name": "甲仙區",
                "ename": "Jiasian",
                "url": "https://jiasian.kcg.gov.tw/"
            },
            {
                "name": "路竹區",
                "ename": "Lujhu",
                "url": "https://lujhu-dist.kcg.gov.tw/Default.aspx"
            },
            {
                "name": "鳥松區",
                "ename": "Niaosong",
                "url": "https://niaosong.kcg.gov.tw/"
            },
            {
                "name": "永安區",
                "ename": "Yongan",
                "url": "https://yongan.kcg.gov.tw/"
            },
            {
                "name": "燕巢區",
                "ename": "Yanchao",
                "url": "https://yanchao.kcg.gov.tw/"
            },
            {
                "name": "大樹區",
                "ename": "Dashu",
                "url": "https://dashu.kcg.gov.tw/"
            },
            {
                "name": "大寮區",
                "ename": "Daliao",
                "url": "https://daliao.kcg.gov.tw/"
            },
            {
                "name": "林園區",
                "ename": "Linyuan",
                "url": "https://linyuan.kcg.gov.tw/"
            },
            {
                "name": "彌陀區",
                "ename": "Mituo",
                "url": "https://mituo.kcg.gov.tw/"
            },
            {
                "name": "橋頭區",
                "ename": "Ciaotou",
                "url": "https://ctc.kcg.gov.tw/"
            },
            {
                "name": "大社區",
                "ename": "Dashe",
                "url": "https://dsrtg.kcg.gov.tw/"
            },
            {
                "name": "那瑪夏區",
                "ename": "Namasia",
                "url": "https://namasia.kcg.gov.tw/"
            },
            {
                "name": "桃源區",
                "ename": "Tauyuan",
                "url": "https://tauyuan.kcg.gov.tw/"
            }
        ]
    }
]
